Place,Name,BirthDate,Sex,BirthYear,Age,State,Equipment,Division,BodyweightKg,WeightClassKg,Squat1Kg,Squat2Kg,Squat3Kg,Best3SquatKg,Bench1Kg,Bench2Kg,Bench3Kg,Best3BenchKg,Deadlift1Kg,Deadlift2Kg,Deadlift3Kg,Best3DeadliftKg,TotalKg,Event
1,Sydnee Hester,,F,2001,22,IN,Raw,J20-23,89.3,90,140,150,160,160,-75,80,-87.5,80,140,150,160,160,400,SBD
1,Becky Simpson,,F,1974,49,OH,Raw,M45-49,54.3,56,80,82.5,-85,82.5,45,-50,-50,45,-105,105,-107.5,105,232.5,SBD
1,Candi Nostrant,,F,1970,53,OH,Raw,M50-54,66.6,67.5,160,167.5,-173,167.5,100,105,107.5,107.5,170,-182.5,-182.5,170,445,SBD
1,Jennifer Shuck,,F,1972,51,IN,Raw,M50-54,78.4,82.5,75,82.5,87.5,87.5,45,52.5,-55,52.5,90,97.5,105,105,245,SBD
1,Megan Wright,,F,1965,58,IN,Raw,M55-59,91.9,100,97.5,105,-115,105,50,-55,-55,50,100,107.5,117.5,117.5,272.5,SBD
1,Candi Nostrant,,F,1970,53,OH,Raw,Open,66.6,67.5,160,167.5,-173,167.5,100,105,107.5,107.5,170,-182.5,-182.5,170,445,SBD
2,Andrea Queen,,F,1994,29,MI,Raw,Open,65.4,67.5,115,122.5,-130,122.5,-75,-75,75,75,142.5,152.5,-160,152.5,350,SBD
1,Tori Kroon,,F,1996,27,NY,Raw,Open,74.9,75,125,132.5,137.5,137.5,77.5,82.5,85,85,152.5,165,172.5,172.5,395,SBD
1,Kylie Osborne,,F,1997,26,IN,Raw,Open,80.5,82.5,120,130,-137.5,130,62.5,67.5,-72.5,67.5,160,167.5,170,170,367.5,SBD
2,Joanne Norell,,F,1989,34,IN,Raw,Open,78.9,82.5,97.5,-110,110,110,62.5,-70,-70,62.5,125,142.5,157.5,157.5,330,SBD
1,Nalae Yang,,F,1988,35,FL,Raw,Open,89.4,90,155,160,-170,160,82.5,87.5,-90,87.5,175,190,205,205,452.5,SBD
1,Melissa Gustafson,,F,1984,39,IN,Raw,Open,133.8,140,175,190,-200,190,122.5,132.5,-137.5,132.5,195,207.5,212.5,212.5,535,SBD
1,India Tapplar,,F,1984,38,IN,Raw,S35-39,59.3,60,87.5,97.5,105,105,45,50,-55,50,130,140,147.5,147.5,302.5,SBD
1,Mary K Hamby,,F,1986,37,IN,Raw,S35-39,75,75,82.5,-90,-90,82.5,55,-60,-60,55,85,92.5,102.5,102.5,240,SBD
1,Jordan Naythen Abdon,,M,2004,18,IN,Raw,J18-19,67.5,67.5,170,180,190,190,110,117.5,122.5,122.5,202.5,212.5,-227.5,212.5,525,SBD
1,Adam Ketchum,,M,2001,22,IN,Raw,J20-23,96.1,100,-150,157.5,165,165,110,-120,-120,110,192.5,202.5,215,215,490,SBD
1,Tony Ordway,,M,2001,22,IN,Raw,J20-23,157.4,140+,250,270,280,280,-140,140,-147.5,140,250,265,275,275,695,SBD
1,Dustin A Craigo,,M,1982,41,IN,Raw,M40-44,74.8,75,207.5,220,230,230,100,107.5,-112.5,107.5,210,220,230,230,567.5,SBD
1,Dario Cortes,,M,1980,43,IN,Raw,M40-44,89.4,90,-230,-235,235,235,157.5,172.5,-182.5,172.5,227.5,242.5,260,260,667.5,SBD
1,Michael Folzenlogel,,M,1982,41,IN,Raw,M40-44,97.4,100,182.5,195,202.5,202.5,127.5,137.5,145,145,187.5,195,205,205,552.5,SBD
1,Luke L Lofland,,M,1983,40,IN,Raw,M40-44,159.3,140+,167.5,-177.5,182.5,182.5,105,112.5,-120,112.5,230,-242.5,-242.5,230,525,SBD
1,Manseil Washburn,,M,1972,51,IN,Raw,M50-54,98.7,100,115,130,142.5,142.5,105,112.5,-115,112.5,140,152.5,167.5,167.5,422.5,SBD
1,James Bronke,,M,1950,73,MI,Raw,M70-74,89.2,90,70,77.5,82.5,82.5,60,65,67.5,67.5,105,112.5,117.5,117.5,267.5,SBD
1,Dustin A Craigo,,M,1982,41,IN,Raw,Open,74.8,75,207.5,220,230,230,100,107.5,-112.5,107.5,210,220,230,230,567.5,SBD
2,Jeff Burdick,,M,1984,39,IN,Raw,Open,74.6,75,197.5,202.5,-207.5,202.5,127.5,-137.5,-137.5,127.5,205,-220,-220,205,535,SBD
1,Dario Cortes,,M,1980,43,IN,Raw,Open,89.4,90,-230,-235,235,235,157.5,172.5,-182.5,172.5,227.5,242.5,260,260,667.5,SBD
2,Sam Stiers,,M,1997,26,IN,Raw,Open,88.9,90,205,220,227.5,227.5,125,130,135,135,235,252.5,-257.5,252.5,615,SBD
3,Blue Roth,,M,1986,37,MI,Raw,Open,86,90,155,175,185,185,97.5,107.5,-120,107.5,192.5,205,215,215,507.5,SBD
1,Justin McCurdy,,M,1992,31,IN,Raw,Open,94.3,100,242.5,257.5,272.5,272.5,145,155,170,170,235,255,272.5,272.5,715,SBD
2,Samuel Nash,,M,1991,32,IL,Raw,Open,95.5,100,155,170,177.5,177.5,115,125,130,130,167.5,182.5,192.5,192.5,500,SBD
1,Chris Noble,,M,1988,35,MI,Raw,Open,108,110,260,285,290,290,172.5,182.5,-187.5,182.5,287.5,310,320,320,792.5,SBD
2,Michael Wiley,,M,1990,33,MI,Raw,Open,106.7,110,230,245,252.5,252.5,160,-167.5,-167.5,160,270,287.5,-295,287.5,700,SBD
3,Owen Dodd,,M,1997,26,OH,Raw,Open,105.7,110,230,245,252.5,252.5,147.5,152.5,162.5,162.5,230,242.5,250,250,665,SBD
1,Andrew Garcia,,M,2000,23,MI,Raw,Open,122.5,125,-240,257.5,265,265,165,185,-192.5,185,250,270,290,290,740,SBD
2,Broderick Bollman,,M,1997,26,IN,Raw,Open,115.8,125,265,282.5,-290,282.5,165,170,-172.5,170,260,272.5,280,280,732.5,SBD
1,Anthony Davis #7,,M,1988,34,IN,Raw,Open,131.4,140,312.5,320,330,330,137.5,145,155,155,295,-322.5,-322.5,295,780,SBD
2,Kavon Sheikhalmolooki,,M,1994,29,IN,Raw,Open,137.5,140,232.5,-247.5,255,255,177.5,190,197.5,197.5,245,265,275,275,727.5,SBD
3,Joshua Shaw,,M,1998,24,MI,Raw,Open,135.5,140,237.5,252.5,-257.5,252.5,185,-190,-190,185,237.5,250,-265,250,687.5,SBD
4,Jacub Shaw,,M,1993,30,MI,Raw,Open,125.9,140,220,-232.5,-232.5,220,142.5,-147.5,-147.5,142.5,215,227.5,235,235,597.5,SBD
1,Tony Nixon,,M,1967,56,IN,Raw,M55-59,97.4,100,,,,,162.5,167.5,-172.5,167.5,,,,,167.5,B
1,Paquito Cruz,,M,1970,53,IN,Wraps,M50-54,80.5,82.5,220,-240,-240,220,110,-120,-120,110,232.5,-242.5,-242.5,232.5,562.5,SBD
1,Douglas Nostrant,,M,1968,55,OH,Wraps,M55-59,89.3,90,235,257.5,272.5,272.5,162.5,172.5,,172.5,230,-240,,230,675,SBD
1,Paquito Cruz,,M,1970,53,IN,Wraps,Open,80.5,82.5,220,-240,-240,220,110,-120,-120,110,232.5,-242.5,-242.5,232.5,562.5,SBD
1,Douglas Nostrant,,M,1968,55,OH,Wraps,Open,89.3,90,235,257.5,272.5,272.5,162.5,172.5,,172.5,230,-240,,230,675,SBD
2,Randall Hallett,,M,1987,36,IN,Wraps,Open,89.6,90,182.5,197.5,207.5,207.5,122.5,130,-137.5,130,200,212.5,222.5,222.5,560,SBD
1,Randy Jones,,M,1986,37,IN,Wraps,S35-39,100.9,110,227.5,232.5,250,250,137.5,147.5,157.5,157.5,-222.5,235,242.5,242.5,650,SBD
